T0114.CSV

Model,MSO2014
Firmware Version,1.35

Point Format,Y,
Horizontal Units,S,
Horizontal Scale,1,
Sample Interval,8e-05,
Filter Frequency,1e+08,
Record Length,125000,
Gating,0.0% to 100.0%,
Probe Attenuation,1,
Vertical Units,V,
Vertical Offset,0,
Vertical Scale,0.5,
Label,,
TIME,CH1,CH1 Peak Detect
-5.00000e+00,-0.86,-0.7
-4.99992e+00,-0.82,-1
-4.99984e+00,-0.78,-0.66
-4.99976e+00,-0.68,-0.98
-4.99968e+00,-0.76,-0.64
-4.99960e+00,-0.7,-0.92
-4.99952e+00,-0.64,-0.6
-4.99944e+00,-0.66,-0.88
-4.99936e+00,-0.64,-0.56
-4.99928e+00,-0.64,-0.84
-4.99920e+00,-0.62,-0.54
-4.99912e+00,-0.66,-0.84
-4.99904e+00,-0.66,-0.5
-4.99896e+00,-0.62,-0.8
-4.99888e+00,-0.6,-0.46
-4.99880e+00,-0.58,-0.76
-4.99872e+00,-0.52,-0.44
-4.99864e+00,-0.56,-0.72
-4.99856e+00,-0.52,-0.4
-4.99848e+00,-0.48,-0.68
-4.99840e+00,-0.54,-0.38
-4.99832e+00,-0.46,-0.64
-4.99824e+00,-0.46,-0.32
-4.99816e+00,-0.36,-0.6
-4.99808e+00,-0.38,-0.3
-4.99800e+00,-0.36,-0.58
-4.99792e+00,-0.34,-0.26
-4.99784e+00,-0.34,-0.54
-4.99776e+00,-0.3,-0.22
-4.99768e+00,-0.36,-0.52
-4.99760e+00,-0.34,-0.18
-4.99752e+00,-0.26,-0.5
-4.99744e+00,-0.34,-0.14
-4.99736e+00,-0.24,-0.46
-4.99728e+00,-0.2,-0.14
-4.99720e+00,-0.2,-0.44
-4.99712e+00,-0.18,-0.12
-4.99704e+00,-0.16,-0.42
-4.99696e+00,-0.14,-0.06
-4.99688e+00,-0.22,-0.38
-4.99680e+00,-0.12,-0.04
-4.99672e+00,-0.16,-0.32
-4.99664e+00,-0.16,-0.02
-4.99656e+00,-0.18,-0.3
-4.99648e+00,-0.14,0
-4.99640e+00,-0.12,-0.28
-4.99632e+00,-0.14,0.04
-4.99624e+00,-0.04,-0.26
-4.99616e+00,-0.06,0.08
-4.99608e+00,-0.04,-0.24
-4.99600e+00,0.04,0.1
-4.99592e+00,0.02,-0.2
-4.99584e+00,0.06,0.14
-4.99576e+00,0.02,-0.18
-4.99568e+00,0.1,0.16
-4.99560e+00,0.1,-0.14
-4.99552e+00,0.06,0.2
-4.99544e+00,0.08,-0.1
-4.99536e+00,0.08,0.22
-4.99528e+00,0.12,-0.08
-4.99520e+00,0.08,0.24
-4.99512e+00,0.14,-0.04
-4.99504e+00,0.2,0.28
-4.99496e+00,0.2,-0.04
-4.99488e+00,0.2,0.3
-4.99480e+00,0.24,0
-4.99472e+00,0.24,0.32
-4.99464e+00,0.24,0.02
-4.99456e+00,0.22,0.36
-4.99448e+00,0.32,0.06
-4.99440e+00,0.28,0.38
-4.99432e+00,0.24,0.08
-4.99424e+00,0.26,0.4
-4.99416e+00,0.3,0.1
-4.99408e+00,0.36,0.42
-4.99400e+00,0.3,0.12
-4.99392e+00,0.3,0.48
-4.99384e+00,0.38,0.14
-4.99376e+00,0.34,0.48
-4.99368e+00,0.38,0.16
-4.99360e+00,0.36,0.5
-4.99352e+00,0.38,0.2
-4.99344e+00,0.4,0.52
-4.99336e+00,0.4,0.24
-4.99328e+00,0.44,0.54
-4.99320e+00,0.46,0.24
-4.99312e+00,0.38,0.56
-4.99304e+00,0.46,0.28
-4.99296e+00,0.42,0.6
-4.99288e+00,0.48,0.28
-4.99280e+00,0.48,0.62
-4.99272e+00,0.52,0.32
-4.99264e+00,0.52,0.64
-4.99256e+00,0.48,0.36
-4.99248e+00,0.5,0.66
-4.99240e+00,0.56,0.36
-4.99232e+00,0.52,0.68
-4.99224e+00,0.6,0.4
-4.99216e+00,0.56,0.72
-4.99208e+00,0.58,0.4
-4.99200e+00,0.56,0.74
-4.99192e+00,0.6,0.4
-4.99184e+00,0.6,0.76
-4.99176e+00,0.62,0.44
-4.99168e+00,0.62,0.76
-4.99160e+00,0.66,0.46
-4.99152e+00,0.66,0.8
-4.99144e+00,0.64,0.5
-4.99136e+00,0.68,0.8
-4.99128e+00,0.68,0.5
-4.99120e+00,0.74,0.84
-4.99112e+00,0.68,0.56
-4.99104e+00,0.72,0.84
-4.99096e+00,0.76,0.56
-4.99088e+00,0.7,0.84
-4.99080e+00,0.78,0.58
-4.99072e+00,0.72,0.88
-4.99064e+00,0.76,0.6
-4.99056e+00,0.82,0.9
-4.99048e+00,0.72,0.6
-4.99040e+00,0.72,0.92
-4.99032e+00,0.78,0.62
-4.99024e+00,0.76,0.94
-4.99016e+00,0.8,0.66
-4.99008e+00,0.82,0.96
-4.99000e+00,0.82,0.68
-4.98992e+00,0.82,0.98
-4.98984e+00,0.82,0.68
-4.98976e+00,0.92,0.98
-4.98968e+00,0.88,0.7
-4.98960e+00,0.92,1.02
-4.98952e+00,0.9,0.72
-4.98944e+00,0.8,1.02
-4.98936e+00,0.9,0.72
-4.98928e+00,0.9,1.04
-4.98920e+00,0.9,0.72
-4.98912e+00,1,1.06
-4.98904e+00,0.9,0.76
-4.98896e+00,0.88,1.08
-4.98888e+00,0.98,0.76
-4.98880e+00,1.02,1.1
-4.98872e+00,0.98,0.78
-4.98864e+00,0.98,1.1
-4.98856e+00,1,0.8
-4.98848e+00,0.96,1.12
-4.98840e+00,1.02,0.8
-4.98832e+00,1,1.14
-4.98824e+00,1.04,0.84
-4.98816e+00,1.08,1.14
-4.98808e+00,1.08,0.84
-4.98800e+00,1.06,1.16
-4.98792e+00,1.04,0.86
-4.98784e+00,1.08,1.18
-4.98776e+00,1.06,0.86
-4.98768e+00,1.08,1.2
-4.98760e+00,1.06,0.9
-4.98752e+00,1.08,1.2
-4.98744e+00,1.02,0.9
-4.98736e+00,1.04,1.22
-4.98728e+00,1.04,0.9
-4.98720e+00,1.08,1.24
-4.98712e+00,1.08,0.92
-4.98704e+00,1.08,1.24
-4.98696e+00,1.06,0.94
-4.98688e+00,1.12,1.24
-4.98680e+00,1.06,0.92
-4.98672e+00,1.06,1.28
-4.98664e+00,1.08,0.96
-4.98656e+00,1.08,1.26
-4.98648e+00,1.12,0.98
-4.98640e+00,1.14,1.28
-4.98632e+00,1.14,0.98
-4.98624e+00,1.16,1.3
-4.98616e+00,1.12,0.98
-4.98608e+00,1.14,1.3
-4.98600e+00,1.08,1
-4.98592e+00,1.18,1.34
-4.98584e+00,1.22,1.02
-4.98576e+00,1.16,1.32
-4.98568e+00,1.26,1.02
-4.98560e+00,1.18,1.36
-4.98552e+00,1.18,1.04
-4.98544e+00,1.16,1.34
-4.98536e+00,1.16,1.04
-4.98528e+00,1.26,1.36
-4.98520e+00,1.12,1.06
-4.98512e+00,1.3,1.36
-4.98504e+00,1.2,1.08
-4.98496e+00,1.24,1.38
-4.98488e+00,1.12,1.08
-4.98480e+00,1.16,1.38
-4.98472e+00,1.2,1.08
-4.98464e+00,1.26,1.4
-4.98456e+00,1.22,1.1
-4.98448e+00,1.24,1.4
-4.98440e+00,1.26,1.1
-4.98432e+00,1.26,1.42
-4.98424e+00,1.24,1.12
-4.98416e+00,1.28,1.42
-4.98408e+00,1.3,1.12
-4.98400e+00,1.3,1.42
-4.98392e+00,1.2,1.12
-4.98384e+00,1.3,1.44
-4.98376e+00,1.32,1.12
-4.98368e+00,1.32,1.44
-4.98360e+00,1.22,1.14
-4.98352e+00,1.26,1.46
-4.98344e+00,1.26,1.14
-4.98336e+00,1.36,1.46
-4.98328e+00,1.32,1.16
-4.98320e+00,1.34,1.46
-4.98312e+00,1.42,1.16
-4.98304e+00,1.32,1.46
-4.98296e+00,1.38,1.16
-4.98288e+00,1.32,1.48
-4.98280e+00,1.36,1.18
-4.98272e+00,1.36,1.48
-4.98264e+00,1.44,1.18
-4.98256e+00,1.3,1.48
-4.98248e+00,1.38,1.2
-4.98240e+00,1.38,1.5
-4.98232e+00,1.38,1.2
-4.98224e+00,1.26,1.52
-4.98216e+00,1.44,1.2
-4.98208e+00,1.4,1.52
-4.98200e+00,1.4,1.2
-4.98192e+00,1.36,1.52
-4.98184e+00,1.44,1.22
-4.98176e+00,1.32,1.54
-4.98168e+00,1.4,1.22
-4.98160e+00,1.42,1.52
-4.98152e+00,1.34,1.22
-4.98144e+00,1.4,1.54
-4.98136e+00,1.34,1.2
-4.98128e+00,1.32,1.56
-4.98120e+00,1.32,1.22
-4.98112e+00,1.28,1.56
-4.98104e+00,1.48,1.22
-4.98096e+00,1.38,1.58
-4.98088e+00,1.44,1.22
-4.98080e+00,1.38,1.58
-4.98072e+00,1.38,1.22
-4.98064e+00,1.42,1.58
-4.98056e+00,1.4,1.22
-4.98048e+00,1.34,1.56
-4.98040e+00,1.32,1.24
-4.98032e+00,1.44,1.58
-4.98024e+00,1.38,1.24
-4.98016e+00,1.4,1.58
-4.98008e+00,1.44,1.24
-4.98000e+00,1.38,1.58
-4.97992e+00,1.44,1.26
-4.97984e+00,1.34,1.56
-4.97976e+00,1.44,1.24
-4.97968e+00,1.42,1.58
-4.97960e+00,1.4,1.24
-4.97952e+00,1.4,1.58
-4.97944e+00,1.46,1.24
-4.97936e+00,1.46,1.56
-4.97928e+00,1.38,1.24
-4.97920e+00,1.48,1.58
-4.97912e+00,1.42,1.24
-4.97904e+00,1.46,1.54
-4.97896e+00,1.38,1.22
-4.97888e+00,1.32,1.54
-4.97880e+00,1.44,1.22
-4.97872e+00,1.32,1.54
-4.97864e+00,1.4,1.2
-4.97856e+00,1.38,1.56
-4.97848e+00,1.34,1.2
-4.97840e+00,1.4,1.56
-4.97832e+00,1.38,1.2
-4.97824e+00,1.26,1.5
-4.97816e+00,1.38,1.18
-4.97808e+00,1.26,1.48
-4.97800e+00,1.28,1.16
-4.97792e+00,1.22,1.48
-4.97784e+00,1.3,1.16
-4.97776e+00,1.28,1.48
-4.97768e+00,1.28,1.14
-4.97760e+00,1.24,1.46
-4.97752e+00,1.22,1.1
-4.97744e+00,1.18,1.44
-4.97736e+00,1.2,1.1
-4.97728e+00,1.14,1.44
-4.97720e+00,1.18,1.08
-4.97712e+00,1.18,1.42
-4.97704e+00,1.2,1.06
-4.97696e+00,1.16,1.38
-4.97688e+00,1.16,1.04
-4.97680e+00,1.06,1.36
-4.97672e+00,1.14,1.02
-4.97664e+00,1.1,1.34
-4.97656e+00,1.06,1
-4.97648e+00,1.08,1.32
-4.97640e+00,1.08,0.98
-4.97632e+00,1.1,1.28
-4.97624e+00,1.06,0.92
-4.97616e+00,1.12,1.26
-4.97608e+00,1.1,0.92
-4.97600e+00,1.06,1.22
-4.97592e+00,0.92,0.9
-4.97584e+00,0.96,1.18
-4.97576e+00,1.08,0.86
-4.97568e+00,1,1.16
-4.97560e+00,0.96,0.84
-4.97552e+00,0.96,1.14
-4.97544e+00,0.92,0.8
-4.97536e+00,0.94,1.1
-4.97528e+00,0.9,0.76
-4.97520e+00,0.8,1.1
-4.97512e+00,0.86,0.74
-4.97504e+00,0.8,1.04
-4.97496e+00,0.78,0.7
-4.97488e+00,0.8,1.02
-4.97480e+00,0.82,0.66
-4.97472e+00,0.72,0.96
-4.97464e+00,0.7,0.62
-4.97456e+00,0.8,0.94
-4.97448e+00,0.74,0.58
-4.97440e+00,0.74,0.88
-4.97432e+00,0.64,0.56
-4.97424e+00,0.64,0.88
-4.97416e+00,0.6,0.52
-4.97408e+00,0.56,0.82
-4.97400e+00,0.56,0.48
-4.97392e+00,0.56,0.78
-4.97384e+00,0.54,0.42
-4.97376e+00,0.54,0.76
-4.97368e+00,0.56,0.4
-4.97360e+00,0.5,0.72
-4.97352e+00,0.5,0.36
-4.97344e+00,0.44,0.68
-4.97336e+00,0.5,0.32
-4.97328e+00,0.5,0.66
-4.97320e+00,0.36,0.3
-4.97312e+00,0.38,0.6
-4.97304e+00,0.34,0.26
-4.97296e+00,0.34,0.58
-4.97288e+00,0.28,0.22
-4.97280e+00,0.34,0.54
-4.97272e+00,0.36,0.18
-4.97264e+00,0.3,0.52
-4.97256e+00,0.26,0.14
-4.97248e+00,0.24,0.48
-4.97240e+00,0.34,0.12
-4.97232e+00,0.24,0.44
-4.97224e+00,0.24,0.08
-4.97216e+00,0.2,0.4
-4.97208e+00,0.22,0.04
-4.97200e+00,0.14,0.4
-4.97192e+00,0.14,0
-4.97184e+00,0.1,0.36
-4.97176e+00,0.14,-0.04
-4.97168e+00,0.14,0.32
-4.97160e+00,0.06,-0.06
-4.97152e+00,0.06,0.28
-4.97144e+00,0,-0.08
-4.97136e+00,0.06,0.24
-4.97128e+00,0.02,-0.12
-4.97120e+00,-0.02,0.22
-4.97112e+00,0,-0.14
-4.97104e+00,-0.08,0.2
-4.97096e+00,0,-0.16
-4.97088e+00,0.04,0.14
-4.97080e+00,-0.06,-0.2
-4.97072e+00,-0.1,0.12
-4.97064e+00,-0.02,-0.24
-4.97056e+00,-0.06,0.1
-4.97048e+00,-0.14,-0.26
-4.97040e+00,-0.1,0.06
-4.97032e+00,-0.1,-0.3
-4.97024e+00,-0.24,0.04
-4.97016e+00,-0.1,-0.32
-4.97008e+00,-0.14,0
-4.97000e+00,-0.2,-0.36
-4.96992e+00,-0.18,0
-4.96984e+00,-0.22,-0.36
-4.96976e+00,-0.22,-0.04
-4.96968e+00,-0.24,-0.4
-4.96960e+00,-0.32,-0.06
-4.96952e+00,-0.24,-0.44
-4.96944e+00,-0.24,-0.08
-4.96936e+00,-0.28,-0.46
-4.96928e+00,-0.32,-0.12
-4.96920e+00,-0.32,-0.48
-4.96912e+00,-0.32,-0.16
-4.96904e+00,-0.32,-0.5
-4.96896e+00,-0.28,-0.18
-4.96888e+00,-0.38,-0.52
-4.96880e+00,-0.44,-0.2
-4.96872e+00,-0.44,-0.54
-4.96864e+00,-0.38,-0.22
-4.96856e+00,-0.38,-0.56
-4.96848e+00,-0.4,-0.24
-4.96840e+00,-0.48,-0.6
-4.96832e+00,-0.44,-0.28
-4.96824e+00,-0.52,-0.62
-4.96816e+00,-0.54,-0.28
-4.96808e+00,-0.44,-0.62
-4.96800e+00,-0.5,-0.32
-4.96792e+00,-0.42,-0.66
-4.96784e+00,-0.46,-0.34
-4.96776e+00,-0.54,-0.68
-4.96768e+00,-0.52,-0.36
-4.96760e+00,-0.6,-0.7
-4.96752e+00,-0.58,-0.38
-4.96744e+00,-0.62,-0.72
-4.96736e+00,-0.6,-0.4
-4.96728e+00,-0.64,-0.76
-4.96720e+00,-0.54,-0.42
-4.96712e+00,-0.66,-0.76
-4.96704e+00,-0.66,-0.46
-4.96696e+00,-0.66,-0.76
-4.96688e+00,-0.66,-0.46
-4.96680e+00,-0.72,-0.8
-4.96672e+00,-0.68,-0.48
-4.96664e+00,-0.68,-0.8
-4.96656e+00,-0.72,-0.5
-4.96648e+00,-0.66,-0.82
-4.96640e+00,-0.76,-0.54
-4.96632e+00,-0.62,-0.84
-4.96624e+00,-0.72,-0.54
-4.96616e+00,-0.74,-0.86
-4.96608e+00,-0.72,-0.56
-4.96600e+00,-0.72,-0.9
-4.96592e+00,-0.72,-0.58
-4.96584e+00,-0.74,-0.9
-4.96576e+00,-0.7,-0.6
-4.96568e+00,-0.76,-0.92
-4.96560e+00,-0.8,-0.62
-4.96552e+00,-0.82,-0.96
-4.96544e+00,-0.88,-0.62
-4.96536e+00,-0.82,-0.96
-4.96528e+00,-0.84,-0.64
-4.96520e+00,-0.84,-0.96
-4.96512e+00,-0.94,-0.66
-4.96504e+00,-0.92,-1
-4.96496e+00,-0.84,-0.68
-4.96488e+00,-0.8,-1
-4.96480e+00,-0.86,-0.7
-4.96472e+00,-0.92,-1.02
-4.96464e+00,-0.82,-0.7
-4.96456e+00,-0.88,-1.06
-4.96448e+00,-0.86,-0.72
-4.96440e+00,-0.92,-1.06
-4.96432e+00,-0.94,-0.74
-4.96424e+00,-0.98,-1.08
-4.96416e+00,-0.98,-0.74
-4.96408e+00,-0.88,-1.08
-4.96400e+00,-0.96,-0.76
-4.96392e+00,-1,-1.12
-4.96384e+00,-0.94,-0.78
-4.96376e+00,-1,-1.1
-4.96368e+00,-0.92,-0.8
-4.96360e+00,-1,-1.12
-4.96352e+00,-0.98,-0.8
-4.96344e+00,-1.02,-1.14
-4.96336e+00,-1,-0.82
-4.96328e+00,-1.1,-1.16
-4.96320e+00,-0.96,-0.82
-4.96312e+00,-1,-1.16
-4.96304e+00,-0.98,-0.84
-4.96296e+00,-1,-1.18
-4.96288e+00,-0.98,-0.86
-4.96280e+00,-1.04,-1.18
-4.96272e+00,-1.08,-0.88
-4.96264e+00,-1.02,-1.2
-4.96256e+00,-1.06,-0.88
-4.96248e+00,-1.06,-1.22
-4.96240e+00,-1.08,-0.88
-4.96232e+00,-1.1,-1.22
-4.96224e+00,-1.04,-0.9
-4.96216e+00,-1.1,-1.24
-4.96208e+00,-1.1,-0.88
-4.96200e+00,-1.16,-1.24
-4.96192e+00,-1.1,-0.92
-4.96184e+00,-1.14,-1.26
-4.96176e+00,-1.18,-0.92
-4.96168e+00,-1.24,-1.26
-4.96160e+00,-1.14,-0.94
-4.96152e+00,-1.12,-1.28
-4.96144e+00,-1.24,-0.96
-4.96136e+00,-1.14,-1.3
-4.96128e+00,-1.16,-0.96
-4.96120e+00,-1.2,-1.32
-4.96112e+00,-1.14,-0.96
-4.96104e+00,-1.18,-1.3
-4.96096e+00,-1.12,-0.98
-4.96088e+00,-1.24,-1.3
-4.96080e+00,-1.12,-0.98
-4.96072e+00,-1.12,-1.32
-4.96064e+00,-1.14,-1
-4.96056e+00,-1.18,-1.32
-4.96048e+00,-1.26,-1.02
-4.96040e+00,-1.18,-1.34
-4.96032e+00,-1.22,-1.02
-4.96024e+00,-1.24,-1.34
-4.96016e+00,-1.2,-1.04
-4.96008e+00,-1.22,-1.36
-4.96000e+00,-1.28,-1.04
-4.95992e+00,-1.2,-1.36
-4.95984e+00,-1.2,-1.04
-4.95976e+00,-1.22,-1.36
-4.95968e+00,-1.2,-1.04
-4.95960e+00,-1.18,-1.38
-4.95952e+00,-1.26,-1.06
-4.95944e+00,-1.16,-1.38
-4.95936e+00,-1.18,-1.06
-4.95928e+00,-1.18,-1.38
-4.95920e+00,-1.26,-1.08
-4.95912e+00,-1.2,-1.4
-4.95904e+00,-1.24,-1.08
-4.95896e+00,-1.24,-1.4
-4.95888e+00,-1.3,-1.08
-4.95880e+00,-1.2,-1.4
-4.95872e+00,-1.22,-1.1
-4.95864e+00,-1.26,-1.42
-4.95856e+00,-1.24,-1.1
-4.95848e+00,-1.24,-1.42
-4.95840e+00,-1.3,-1.12
-4.95832e+00,-1.32,-1.42
-4.95824e+00,-1.3,-1.12
-4.95816e+00,-1.26,-1.42
-4.95808e+00,-1.28,-1.12
-4.95800e+00,-1.22,-1.44
-4.95792e+00,-1.3,-1.12
-4.95784e+00,-1.34,-1.42
-4.95776e+00,-1.3,-1.12
-4.95768e+00,-1.34,-1.44
-4.95760e+00,-1.3,-1.14
-4.95752e+00,-1.22,-1.44
-4.95744e+00,-1.3,-1.12
-4.95736e+00,-1.28,-1.44
-4.95728e+00,-1.34,-1.16
-4.95720e+00,-1.3,-1.46
-4.95712e+00,-1.34,-1.12
-4.95704e+00,-1.32,-1.44
-4.95696e+00,-1.32,-1.16
-4.95688e+00,-1.34,-1.46
-4.95680e+00,-1.32,-1.16
-4.95672e+00,-1.34,-1.48
-4.95664e+00,-1.28,-1.16
-4.95656e+00,-1.24,-1.48
-4.95648e+00,-1.26,-1.16
-4.95640e+00,-1.36,-1.48
-4.95632e+00,-1.28,-1.16
-4.95624e+00,-1.32,-1.5
-4.95616e+00,-1.38,-1.16
-4.95608e+00,-1.36,-1.5
-4.95600e+00,-1.3,-1.14
-4.95592e+00,-1.32,-1.48
-4.95584e+00,-1.34,-1.18
-4.95576e+00,-1.3,-1.5
-4.95568e+00,-1.34,-1.16
-4.95560e+00,-1.32,-1.5
-4.95552e+00,-1.38,-1.16
-4.95544e+00,-1.36,-1.5
-4.95536e+00,-1.44,-1.18
-4.95528e+00,-1.34,-1.5
-4.95520e+00,-1.3,-1.18
-4.95512e+00,-1.28,-1.5
-4.95504e+00,-1.28,-1.16
-4.95496e+00,-1.3,-1.5
-4.95488e+00,-1.36,-1.18
-4.95480e+00,-1.36,-1.48
-4.95472e+00,-1.36,-1.16
-4.95464e+00,-1.28,-1.5
-4.95456e+00,-1.32,-1.16
-4.95448e+00,-1.46,-1.5
-4.95440e+00,-1.28,-1.18
-4.95432e+00,-1.32,-1.48
-4.95424e+00,-1.3,-1.16
-4.95416e+00,-1.4,-1.5
-4.95408e+00,-1.28,-1.14
-4.95400e+00,-1.3,-1.48
-4.95392e+00,-1.28,-1.16
-4.95384e+00,-1.26,-1.48
-4.95376e+00,-1.28,-1.16
-4.95368e+00,-1.26,-1.46
-4.95360e+00,-1.28,-1.14
-4.95352e+00,-1.36,-1.46
-4.95344e+00,-1.24,-1.14
-4.95336e+00,-1.3,-1.44
-4.95328e+00,-1.3,-1.12
-4.95320e+00,-1.22,-1.44
-4.95312e+00,-1.24,-1.08
-4.95304e+00,-1.28,-1.42
-4.95296e+00,-1.3,-1.1
-4.95288e+00,-1.3,-1.4
-4.95280e+00,-1.28,-1.08
-4.95272e+00,-1.22,-1.4
-4.95264e+00,-1.2,-1.08
-4.95256e+00,-1.18,-1.38
-4.95248e+00,-1.12,-1.08
-4.95240e+00,-1.26,-1.38
-4.95232e+00,-1.22,-1.06
-4.95224e+00,-1.16,-1.36
-4.95216e+00,-1.18,-1.04
-4.95208e+00,-1.14,-1.34
-4.95200e+00,-1.1,-1
-4.95192e+00,-1.14,-1.32
-4.95184e+00,-1.12,-1
-4.95176e+00,-1.1,-1.3
-4.95168e+00,-1.04,-0.98
-4.95160e+00,-1.08,-1.3
-4.95152e+00,-1.04,-0.96
-4.95144e+00,-1.02,-1.28
-4.95136e+00,-1.04,-0.92
-4.95128e+00,-1.08,-1.22
-4.95120e+00,-1.04,-0.92
-4.95112e+00,-1.12,-1.22
-4.95104e+00,-1.04,-0.88
-4.95096e+00,-1,-1.18
-4.95088e+00,-1.02,-0.86
-4.95080e+00,-0.98,-1.14
-4.95072e+00,-0.96,-0.84
-4.95064e+00,-0.9,-1.12
-4.95056e+00,-0.92,-0.8
-4.95048e+00,-0.98,-1.08
-4.95040e+00,-0.88,-0.76
-4.95032e+00,-0.9,-1.06
-4.95024e+00,-0.9,-0.74
-4.95016e+00,-0.82,-1.06
-4.95008e+00,-0.78,-0.7
-4.95000e+00,-0.76,-1.02
-4.94992e+00,-0.78,-0.68
-4.94984e+00,-0.78,-1
-4.94976e+00,-0.68,-0.64
-4.94968e+00,-0.7,-0.94
-4.94960e+00,-0.78,-0.6
-4.94952e+00,-0.7,-0.9
-4.94944e+00,-0.64,-0.58
-4.94936e+00,-0.64,-0.88
-4.94928e+00,-0.68,-0.56
-4.94920e+00,-0.64,-0.84
-4.94912e+00,-0.62,-0.5
-4.94904e+00,-0.6,-0.8
-4.94896e+00,-0.62,-0.48
-4.94888e+00,-0.5,-0.78
-4.94880e+00,-0.54,-0.44
-4.94872e+00,-0.52,-0.72
-4.94864e+00,-0.58,-0.44
-4.94856e+00,-0.5,-0.7
-4.94848e+00,-0.54,-0.38
-4.94840e+00,-0.44,-0.66
-4.94832e+00,-0.5,-0.36
-4.94824e+00,-0.48,-0.64
-4.94816e+00,-0.46,-0.3
-4.94808e+00,-0.38,-0.6
-4.94800e+00,-0.38,-0.3
-4.94792e+00,-0.34,-0.58
-4.94784e+00,-0.38,-0.24
-4.94776e+00,-0.38,-0.54
-4.94768e+00,-0.32,-0.2
-4.94760e+00,-0.34,-0.52
-4.94752e+00,-0.22,-0.2
-4.94744e+00,-0.28,-0.48
-4.94736e+00,-0.24,-0.14
-4.94728e+00,-0.3,-0.46
-4.94720e+00,-0.26,-0.12
-4.94712e+00,-0.22,-0.42
-4.94704e+00,-0.28,-0.08
-4.94696e+00,-0.14,-0.38
-4.94688e+00,-0.06,-0.06
-4.94680e+00,-0.14,-0.36
-4.94672e+00,-0.12,-0.02
-4.94664e+00,-0.12,-0.32
-4.94656e+00,-0.08,0.02
-4.94648e+00,-0.1,-0.3
-4.94640e+00,0.02,0.04
-4.94632e+00,-0.06,-0.26
-4.94624e+00,-0.1,0.06
-4.94616e+00,-0.04,-0.24
-4.94608e+00,-0.08,0.1
-4.94600e+00,0.04,-0.2
-4.94592e+00,0.04,0.12
-4.94584e+00,-0.04,-0.18
-4.94576e+00,0.02,0.16
-4.94568e+00,0.06,-0.14
-4.94560e+00,0.06,0.18
-4.94552e+00,0.08,-0.1
-4.94544e+00,0.04,0.2
-4.94536e+00,0.06,-0.08
-4.94528e+00,0.1,0.24
-4.94520e+00,0.16,-0.06
-4.94512e+00,0.1,0.26
-4.94504e+00,0.12,-0.02
-4.94496e+00,0.14,0.3
-4.94488e+00,0.14,0
-4.94480e+00,0.18,0.32
-4.94472e+00,0.2,0.02
-4.94464e+00,0.2,0.34
-4.94456e+00,0.24,0.04
-4.94448e+00,0.22,0.36
-4.94440e+00,0.26,0.06
-4.94432e+00,0.24,0.4
-4.94424e+00,0.28,0.08
-4.94416e+00,0.34,0.42
-4.94408e+00,0.24,0.12
-4.94400e+00,0.28,0.44
-4.94392e+00,0.36,0.14
-4.94384e+00,0.32,0.48
-4.94376e+00,0.4,0.16
-4.94368e+00,0.3,0.5
-4.94360e+00,0.38,0.2
-4.94352e+00,0.32,0.52
-4.94344e+00,0.36,0.22
-4.94336e+00,0.42,0.54
-4.94328e+00,0.44,0.24
-4.94320e+00,0.42,0.58
-4.94312e+00,0.48,0.28
-4.94304e+00,0.48,0.58
-4.94296e+00,0.5,0.28
-4.94288e+00,0.44,0.62
-4.94280e+00,0.44,0.3
-4.94272e+00,0.5,0.64
-4.94264e+00,0.42,0.34
-4.94256e+00,0.52,0.64
-4.94248e+00,0.56,0.34
-4.94240e+00,0.54,0.68
-4.94232e+00,0.56,0.38
-4.94224e+00,0.6,0.7
-4.94216e+00,0.58,0.4
-4.94208e+00,0.62,0.74
-4.94200e+00,0.6,0.42
-4.94192e+00,0.58,0.74
-4.94184e+00,0.58,0.44
-4.94176e+00,0.66,0.76
-4.94168e+00,0.54,0.46
-4.94160e+00,0.68,0.78
-4.94152e+00,0.66,0.5
-4.94144e+00,0.66,0.78
-4.94136e+00,0.7,0.52
-4.94128e+00,0.72,0.82
-4.94120e+00,0.72,0.52
-4.94112e+00,0.76,0.84
-4.94104e+00,0.7,0.56
-4.94096e+00,0.76,0.86
-4.94088e+00,0.72,0.58
-4.94080e+00,0.76,0.88
-4.94072e+00,0.78,0.6
-4.94064e+00,0.76,0.88
-4.94056e+00,0.76,0.6
-4.94048e+00,0.84,0.9
-4.94040e+00,0.8,0.62
-4.94032e+00,0.82,0.94
-4.94024e+00,0.86,0.64
-4.94016e+00,0.82,0.96
-4.94008e+00,0.8,0.66
-4.94000e+00,0.82,0.96
-4.93992e+00,0.8,0.68
-4.93984e+00,0.86,0.98
-4.93976e+00,0.88,0.7
-4.93968e+00,0.82,1
-4.93960e+00,0.86,0.72
-4.93952e+00,0.92,1.02
-4.93944e+00,0.92,0.7
-4.93936e+00,0.92,1.06
-4.93928e+00,0.86,0.72
-4.93920e+00,0.92,1.08
-4.93912e+00,0.92,0.74
-4.93904e+00,0.96,1.08
-4.93896e+00,0.96,0.78
-4.93888e+00,0.98,1.1
-4.93880e+00,1,0.78
-4.93872e+00,0.98,1.1
-4.93864e+00,0.96,0.8
-4.93856e+00,1,1.1
-4.93848e+00,0.92,0.82
-4.93840e+00,0.98,1.12
-4.93832e+00,1.04,0.82
-4.93824e+00,0.94,1.14
-4.93816e+00,1.06,0.84
-4.93808e+00,0.94,1.16
-4.93800e+00,1.02,0.86
-4.93792e+00,1.06,1.16
-4.93784e+00,1.04,0.88
-4.93776e+00,1.08,1.18
-4.93768e+00,1,0.88
-4.93760e+00,1.02,1.2
-4.93752e+00,1.04,0.9
-4.93744e+00,1.1,1.22
-4.93736e+00,1.04,0.9
-4.93728e+00,1.12,1.22
-4.93720e+00,1.12,0.92
-4.93712e+00,1.12,1.22
-4.93704e+00,1.1,0.94
-4.93696e+00,1.12,1.26
-4.93688e+00,1.08,0.94
-4.93680e+00,1.18,1.26
-4.93672e+00,1.06,0.94
-4.93664e+00,1.2,1.28
-4.93656e+00,1.2,0.98
-4.93648e+00,1.14,1.28
-4.93640e+00,1.16,0.98
-4.93632e+00,1.16,1.28
-4.93624e+00,1.16,0.98
-4.93616e+00,1.14,1.34
-4.93608e+00,1.14,1
-4.93600e+00,1.16,1.32
-4.93592e+00,1.14,1
-4.93584e+00,1.12,1.34
-4.93576e+00,1.16,1.02
-4.93568e+00,1.18,1.34
-4.93560e+00,1.14,1.04
-4.93552e+00,1.16,1.34
-4.93544e+00,1.18,1.04
-4.93536e+00,1.26,1.36
-4.93528e+00,1.22,1.04
-4.93520e+00,1.22,1.38
-4.93512e+00,1.24,1.08
-4.93504e+00,1.22,1.38
-4.93496e+00,1.3,1.08
-4.93488e+00,1.22,1.38
-4.93480e+00,1.32,1.08
-4.93472e+00,1.24,1.4
-4.93464e+00,1.26,1.08
-4.93456e+00,1.32,1.4
-4.93448e+00,1.22,1.1
-4.93440e+00,1.28,1.4
-4.93432e+00,1.28,1.1
-4.93424e+00,1.3,1.42
-4.93416e+00,1.22,1.12
-4.93408e+00,1.32,1.42
-4.93400e+00,1.26,1.12
-4.93392e+00,1.22,1.44
-4.93384e+00,1.24,1.14
-4.93376e+00,1.26,1.44
-4.93368e+00,1.32,1.14
-4.93360e+00,1.36,1.44
-4.93352e+00,1.36,1.14
-4.93344e+00,1.28,1.46
-4.93336e+00,1.22,1.14
-4.93328e+00,1.32,1.48
-4.93320e+00,1.3,1.16
-4.93312e+00,1.34,1.48
-4.93304e+00,1.26,1.16
-4.93296e+00,1.3,1.48
-4.93288e+00,1.36,1.18
-4.93280e+00,1.3,1.48
-4.93272e+00,1.34,1.18
