T0120.CSV

Model,MSO2014
Firmware Version,1.35

Point Format,Y,
Horizontal Units,S,
Horizontal Scale,1,
Sample Interval,8e-05,
Filter Frequency,1e+08,
Record Length,125000,
Gating,0.0% to 100.0%,
Probe Attenuation,1,
Vertical Units,V,
Vertical Offset,0,
Vertical Scale,0.125,
Label,,
TIME,CH1,CH1 Peak Detect
-5.00000e+00,0.285,0.385
-4.99992e+00,0.245,0.105
-4.99984e+00,0.22,0.4
-4.99976e+00,0.36,0.115
-4.99968e+00,0.275,0.385
-4.99960e+00,0.245,0.115
-4.99952e+00,0.265,0.395
-4.99944e+00,0.335,0.12
-4.99936e+00,0.315,0.4
-4.99928e+00,0.24,0.11
-4.99920e+00,0.225,0.405
-4.99912e+00,0.305,0.115
-4.99904e+00,0.335,0.405
-4.99896e+00,0.29,0.11
-4.99888e+00,0.285,0.415
-4.99880e+00,0.25,0.11
-4.99872e+00,0.245,0.41
-4.99864e+00,0.28,0.12
-4.99856e+00,0.27,0.41
-4.99848e+00,0.25,0.105
-4.99840e+00,0.265,0.425
-4.99832e+00,0.255,0.13
-4.99824e+00,0.33,0.405
-4.99816e+00,0.23,0.13
-4.99808e+00,0.24,0.415
-4.99800e+00,0.185,0.125
-4.99792e+00,0.335,0.415
-4.99784e+00,0.3,0.115
-4.99776e+00,0.31,0.42
-4.99768e+00,0.255,0.13
-4.99760e+00,0.33,0.415
-4.99752e+00,0.215,0.125
-4.99744e+00,0.29,0.42
-4.99736e+00,0.275,0.12
-4.99728e+00,0.27,0.43
-4.99720e+00,0.35,0.125
-4.99712e+00,0.275,0.42
-4.99704e+00,0.235,0.13
-4.99696e+00,0.245,0.425
-4.99688e+00,0.325,0.135
-4.99680e+00,0.295,0.42
-4.99672e+00,0.22,0.135
-4.99664e+00,0.345,0.425
-4.99656e+00,0.205,0.115
-4.99648e+00,0.28,0.445
-4.99640e+00,0.29,0.135
-4.99632e+00,0.29,0.42
-4.99624e+00,0.305,0.13
-4.99616e+00,0.255,0.43
-4.99608e+00,0.29,0.14
-4.99600e+00,0.235,0.425
-4.99592e+00,0.235,0.14
-4.99584e+00,0.255,0.42
-4.99576e+00,0.24,0.12
-4.99568e+00,0.28,0.44
-4.99560e+00,0.345,0.13
-4.99552e+00,0.27,0.425
-4.99544e+00,0.29,0.125
-4.99536e+00,0.22,0.435
-4.99528e+00,0.245,0.135
-4.99520e+00,0.3,0.42
-4.99512e+00,0.26,0.145
-4.99504e+00,0.26,0.41
-4.99496e+00,0.255,0.13
-4.99488e+00,0.275,0.42
-4.99480e+00,0.215,0.135
-4.99472e+00,0.3,0.415
-4.99464e+00,0.25,0.135
-4.99456e+00,0.335,0.4
-4.99448e+00,0.275,0.13
-4.99440e+00,0.255,0.41
-4.99432e+00,0.27,0.125
-4.99424e+00,0.29,0.405
-4.99416e+00,0.18,0.13
-4.99408e+00,0.23,0.39
-4.99400e+00,0.22,0.115
-4.99392e+00,0.23,0.405
-4.99384e+00,0.24,0.115
-4.99376e+00,0.27,0.39
-4.99368e+00,0.25,0.105
-4.99360e+00,0.255,0.39
-4.99352e+00,0.27,0.11
-4.99344e+00,0.21,0.38
-4.99336e+00,0.23,0.095
-4.99328e+00,0.27,0.38
-4.99320e+00,0.25,0.1
-4.99312e+00,0.235,0.375
-4.99304e+00,0.215,0.09
-4.99296e+00,0.245,0.365
-4.99288e+00,0.205,0.09
-4.99280e+00,0.235,0.365
-4.99272e+00,0.17,0.08
-4.99264e+00,0.165,0.36
-4.99256e+00,0.21,0.07
-4.99248e+00,0.195,0.355
-4.99240e+00,0.22,0.065
-4.99232e+00,0.22,0.34
-4.99224e+00,0.16,0.055
-4.99216e+00,0.205,0.345
-4.99208e+00,0.21,0.045
-4.99200e+00,0.175,0.33
-4.99192e+00,0.17,0.035
-4.99184e+00,0.185,0.33
-4.99176e+00,0.115,0.03
-4.99168e+00,0.17,0.33
-4.99160e+00,0.21,0.03
-4.99152e+00,0.115,0.315
-4.99144e+00,0.125,0.025
-4.99136e+00,0.155,0.295
-4.99128e+00,0.14,0
-4.99120e+00,0.195,0.31
-4.99112e+00,0.125,-0.01
-4.99104e+00,0.13,0.305
-4.99096e+00,0.1,-0.005
-4.99088e+00,0.14,0.295
-4.99080e+00,0.095,-0.01
-4.99072e+00,0.135,0.28
-4.99064e+00,0.14,-0.02
-4.99056e+00,0.16,0.27
-4.99048e+00,0.09,-0.035
-4.99040e+00,0.125,0.27
-4.99032e+00,0.105,-0.035
-4.99024e+00,0.155,0.265
-4.99016e+00,0.055,-0.055
-4.99008e+00,0.19,0.26
-4.99000e+00,0.16,-0.055
-4.98992e+00,0.09,0.245
-4.98984e+00,0.09,-0.045
-4.98976e+00,-0.005,0.23
-4.98968e+00,0.105,-0.065
-4.98960e+00,0.065,0.23
-4.98952e+00,0.035,-0.075
-4.98944e+00,0.01,0.225
-4.98936e+00,0.075,-0.08
-4.98928e+00,0.02,0.215
-4.98920e+00,0.06,-0.09
-4.98912e+00,0.01,0.205
-4.98904e+00,0.055,-0.09
-4.98896e+00,0.075,0.2
-4.98888e+00,0.005,-0.1
-4.98880e+00,0.065,0.2
-4.98872e+00,0.005,-0.105
-4.98864e+00,0.065,0.185
-4.98856e+00,-0.01,-0.115
-4.98848e+00,0.085,0.185
-4.98840e+00,0.015,-0.12
-4.98832e+00,0.005,0.18
-4.98824e+00,-0.025,-0.135
-4.98816e+00,0.015,0.175
-4.98808e+00,0.045,-0.13
-4.98800e+00,-0.01,0.16
-4.98792e+00,0.07,-0.135
-4.98784e+00,-0.01,0.16
-4.98776e+00,-0.015,-0.14
-4.98768e+00,-0.07,0.15
-4.98760e+00,0.02,-0.15
-4.98752e+00,0.015,0.145
-4.98744e+00,0.005,-0.155
-4.98736e+00,0,0.135
-4.98728e+00,0.045,-0.16
-4.98720e+00,0.015,0.135
-4.98712e+00,-0.05,-0.15
-4.98704e+00,-0.07,0.11
-4.98696e+00,0.03,-0.17
-4.98688e+00,0.025,0.12
-4.98680e+00,-0.08,-0.165
-4.98672e+00,-0.08,0.105
-4.98664e+00,-0.09,-0.185
-4.98656e+00,-0.05,0.12
-4.98648e+00,-0.115,-0.18
-4.98640e+00,0.005,0.105
-4.98632e+00,-0.055,-0.195
-4.98624e+00,-0.03,0.1
-4.98616e+00,-0.09,-0.2
-4.98608e+00,-0.095,0.105
-4.98600e+00,-0.075,-0.21
-4.98592e+00,-0.05,0.1
-4.98584e+00,-0.075,-0.195
-4.98576e+00,-0.085,0.07
-4.98568e+00,0,-0.195
-4.98560e+00,-0.08,0.065
-4.98552e+00,-0.085,-0.2
-4.98544e+00,-0.035,0.065
-4.98536e+00,-0.075,-0.205
-4.98528e+00,-0.015,0.06
-4.98520e+00,-0.09,-0.21
-4.98512e+00,-0.12,0.05
-4.98504e+00,-0.06,-0.215
-4.98496e+00,-0.115,0.06
-4.98488e+00,-0.035,-0.215
-4.98480e+00,-0.065,0.045
-4.98472e+00,-0.125,-0.225
-4.98464e+00,-0.1,0.04
-4.98456e+00,-0.12,-0.22
-4.98448e+00,-0.16,0.04
-4.98440e+00,-0.085,-0.23
-4.98432e+00,-0.125,0.035
-4.98424e+00,-0.11,-0.23
-4.98416e+00,-0.09,0.02
-4.98408e+00,-0.105,-0.245
-4.98400e+00,-0.085,0.035
-4.98392e+00,-0.135,-0.25
-4.98384e+00,-0.035,0.03
-4.98376e+00,-0.105,-0.255
-4.98368e+00,-0.115,0.02
-4.98360e+00,-0.155,-0.245
-4.98352e+00,-0.09,0
-4.98344e+00,-0.135,-0.265
-4.98336e+00,-0.055,0.015
-4.98328e+00,-0.12,-0.275
-4.98320e+00,-0.16,0.02
-4.98312e+00,-0.13,-0.26
-4.98304e+00,-0.08,0
-4.98296e+00,-0.11,-0.265
-4.98288e+00,-0.17,0
-4.98280e+00,-0.055,-0.28
-4.98272e+00,-0.125,0.005
-4.98264e+00,-0.09,-0.27
-4.98256e+00,-0.175,-0.01
-4.98248e+00,-0.1,-0.285
-4.98240e+00,-0.115,-0.005
-4.98232e+00,-0.22,-0.28
-4.98224e+00,-0.17,-0.015
-4.98216e+00,-0.165,-0.295
-4.98208e+00,-0.115,-0.005
-4.98200e+00,-0.105,-0.305
-4.98192e+00,-0.105,-0.005
-4.98184e+00,-0.17,-0.295
-4.98176e+00,-0.22,-0.01
-4.98168e+00,-0.125,-0.3
-4.98160e+00,-0.17,-0.02
-4.98152e+00,-0.12,-0.315
-4.98144e+00,-0.16,-0.01
-4.98136e+00,-0.22,-0.31
-4.98128e+00,-0.17,-0.025
-4.98120e+00,-0.165,-0.31
-4.98112e+00,-0.12,-0.035
-4.98104e+00,-0.21,-0.305
-4.98096e+00,-0.15,-0.03
-4.98088e+00,-0.205,-0.33
-4.98080e+00,-0.17,-0.025
-4.98072e+00,-0.13,-0.315
-4.98064e+00,-0.165,-0.035
-4.98056e+00,-0.22,-0.32
-4.98048e+00,-0.16,-0.035
-4.98040e+00,-0.21,-0.325
-4.98032e+00,-0.145,-0.035
-4.98024e+00,-0.235,-0.325
-4.98016e+00,-0.18,-0.04
-4.98008e+00,-0.195,-0.335
-4.98000e+00,-0.1,-0.045
-4.97992e+00,-0.19,-0.335
-4.97984e+00,-0.215,-0.045
-4.97976e+00,-0.18,-0.345
-4.97968e+00,-0.2,-0.045
-4.97960e+00,-0.22,-0.35
-4.97952e+00,-0.115,-0.045
-4.97944e+00,-0.21,-0.36
-4.97936e+00,-0.21,-0.045
-4.97928e+00,-0.2,-0.335
-4.97920e+00,-0.24,-0.07
-4.97912e+00,-0.25,-0.345
-4.97904e+00,-0.17,-0.06
-4.97896e+00,-0.165,-0.37
-4.97888e+00,-0.21,-0.05
-4.97880e+00,-0.225,-0.37
-4.97872e+00,-0.27,-0.055
-4.97864e+00,-0.22,-0.35
-4.97856e+00,-0.25,-0.075
-4.97848e+00,-0.195,-0.35
-4.97840e+00,-0.2,-0.075
-4.97832e+00,-0.305,-0.35
-4.97824e+00,-0.285,-0.075
-4.97816e+00,-0.245,-0.36
-4.97808e+00,-0.19,-0.08
-4.97800e+00,-0.205,-0.37
-4.97792e+00,-0.24,-0.07
-4.97784e+00,-0.16,-0.365
-4.97776e+00,-0.215,-0.075
-4.97768e+00,-0.205,-0.37
-4.97760e+00,-0.165,-0.075
-4.97752e+00,-0.245,-0.375
-4.97744e+00,-0.195,-0.075
-4.97736e+00,-0.18,-0.36
-4.97728e+00,-0.23,-0.09
-4.97720e+00,-0.27,-0.365
-4.97712e+00,-0.25,-0.085
-4.97704e+00,-0.295,-0.36
-4.97696e+00,-0.27,-0.1
-4.97688e+00,-0.275,-0.365
-4.97680e+00,-0.26,-0.1
-4.97672e+00,-0.245,-0.37
-4.97664e+00,-0.26,-0.095
-4.97656e+00,-0.22,-0.38
-4.97648e+00,-0.255,-0.095
-4.97640e+00,-0.245,-0.375
-4.97632e+00,-0.275,-0.105
-4.97624e+00,-0.265,-0.365
-4.97616e+00,-0.23,-0.11
-4.97608e+00,-0.26,-0.38
-4.97600e+00,-0.285,-0.095
-4.97592e+00,-0.21,-0.365
-4.97584e+00,-0.23,-0.115
-4.97576e+00,-0.28,-0.375
-4.97568e+00,-0.21,-0.11
-4.97560e+00,-0.24,-0.385
-4.97552e+00,-0.29,-0.11
-4.97544e+00,-0.195,-0.37
-4.97536e+00,-0.24,-0.12
-4.97528e+00,-0.235,-0.375
-4.97520e+00,-0.22,-0.12
-4.97512e+00,-0.255,-0.395
-4.97504e+00,-0.22,-0.105
-4.97496e+00,-0.275,-0.39
-4.97488e+00,-0.23,-0.11
-4.97480e+00,-0.29,-0.41
-4.97472e+00,-0.24,-0.105
-4.97464e+00,-0.28,-0.385
-4.97456e+00,-0.255,-0.125
-4.97448e+00,-0.24,-0.385
-4.97440e+00,-0.265,-0.125
-4.97432e+00,-0.285,-0.405
-4.97424e+00,-0.21,-0.1
-4.97416e+00,-0.33,-0.395
-4.97408e+00,-0.275,-0.12
-4.97400e+00,-0.295,-0.4
-4.97392e+00,-0.3,-0.12
-4.97384e+00,-0.32,-0.405
-4.97376e+00,-0.27,-0.115
-4.97368e+00,-0.32,-0.405
-4.97360e+00,-0.295,-0.115
-4.97352e+00,-0.225,-0.395
-4.97344e+00,-0.33,-0.13
-4.97336e+00,-0.255,-0.405
-4.97328e+00,-0.225,-0.125
-4.97320e+00,-0.255,-0.415
-4.97312e+00,-0.3,-0.12
-4.97304e+00,-0.295,-0.405
-4.97296e+00,-0.27,-0.135
-4.97288e+00,-0.31,-0.43
-4.97280e+00,-0.35,-0.11
-4.97272e+00,-0.26,-0.42
-4.97264e+00,-0.24,-0.12
-4.97256e+00,-0.3,-0.42
-4.97248e+00,-0.26,-0.115
-4.97240e+00,-0.275,-0.42
-4.97232e+00,-0.245,-0.125
-4.97224e+00,-0.255,-0.415
-4.97216e+00,-0.265,-0.135
-4.97208e+00,-0.3,-0.415
-4.97200e+00,-0.29,-0.13
-4.97192e+00,-0.27,-0.415
-4.97184e+00,-0.325,-0.14
-4.97176e+00,-0.265,-0.42
-4.97168e+00,-0.205,-0.135
-4.97160e+00,-0.295,-0.435
-4.97152e+00,-0.225,-0.125
-4.97144e+00,-0.29,-0.415
-4.97136e+00,-0.275,-0.135
-4.97128e+00,-0.235,-0.45
-4.97120e+00,-0.265,-0.095
-4.97112e+00,-0.235,-0.42
-4.97104e+00,-0.235,-0.135
-4.97096e+00,-0.285,-0.45
-4.97088e+00,-0.3,-0.115
-4.97080e+00,-0.255,-0.425
-4.97072e+00,-0.3,-0.125
-4.97064e+00,-0.285,-0.415
-4.97056e+00,-0.235,-0.135
-4.97048e+00,-0.29,-0.435
-4.97040e+00,-0.215,-0.11
-4.97032e+00,-0.26,-0.42
-4.97024e+00,-0.27,-0.125
-4.97016e+00,-0.27,-0.42
-4.97008e+00,-0.27,-0.13
-4.97000e+00,-0.225,-0.43
-4.96992e+00,-0.245,-0.115
-4.96984e+00,-0.265,-0.415
-4.96976e+00,-0.3,-0.125
-4.96968e+00,-0.25,-0.41
-4.96960e+00,-0.26,-0.125
-4.96952e+00,-0.195,-0.405
-4.96944e+00,-0.345,-0.12
-4.96936e+00,-0.26,-0.41
-4.96928e+00,-0.285,-0.12
-4.96920e+00,-0.295,-0.4
-4.96912e+00,-0.215,-0.125
-4.96904e+00,-0.29,-0.405
-4.96896e+00,-0.24,-0.12
-4.96888e+00,-0.23,-0.39
-4.96880e+00,-0.215,-0.11
-4.96872e+00,-0.265,-0.39
-4.96864e+00,-0.265,-0.105
-4.96856e+00,-0.23,-0.385
-4.96848e+00,-0.22,-0.11
-4.96840e+00,-0.22,-0.375
-4.96832e+00,-0.22,-0.1
-4.96824e+00,-0.2,-0.365
-4.96816e+00,-0.2,-0.11
-4.96808e+00,-0.23,-0.375
-4.96800e+00,-0.235,-0.09
-4.96792e+00,-0.245,-0.37
-4.96784e+00,-0.23,-0.075
-4.96776e+00,-0.265,-0.35
-4.96768e+00,-0.255,-0.085
-4.96760e+00,-0.13,-0.375
-4.96752e+00,-0.175,-0.06
-4.96744e+00,-0.25,-0.355
-4.96736e+00,-0.245,-0.06
-4.96728e+00,-0.205,-0.34
-4.96720e+00,-0.185,-0.075
-4.96712e+00,-0.235,-0.33
-4.96704e+00,-0.155,-0.06
-4.96696e+00,-0.165,-0.315
-4.96688e+00,-0.15,-0.06
-4.96680e+00,-0.165,-0.305
-4.96672e+00,-0.21,-0.055
-4.96664e+00,-0.185,-0.3
-4.96656e+00,-0.17,-0.05
-4.96648e+00,-0.135,-0.295
-4.96640e+00,-0.085,-0.04
-4.96632e+00,-0.135,-0.3
-4.96624e+00,-0.16,-0.02
-4.96616e+00,-0.115,-0.3
-4.96608e+00,-0.2,-0.005
-4.96600e+00,-0.14,-0.285
-4.96592e+00,-0.115,-0.01
-4.96584e+00,-0.13,-0.29
-4.96576e+00,-0.06,0.015
-4.96568e+00,-0.135,-0.285
-4.96560e+00,-0.16,0.025
-4.96552e+00,-0.145,-0.27
-4.96544e+00,-0.085,0.03
-4.96536e+00,-0.075,-0.265
-4.96528e+00,-0.125,0.025
-4.96520e+00,-0.07,-0.255
-4.96512e+00,-0.115,0.04
-4.96504e+00,-0.07,-0.245
-4.96496e+00,-0.14,0.04
-4.96488e+00,-0.09,-0.235
-4.96480e+00,-0.115,0.045
-4.96472e+00,-0.075,-0.225
-4.96464e+00,-0.115,0.05
-4.96456e+00,-0.135,-0.24
-4.96448e+00,-0.105,0.075
-4.96440e+00,-0.065,-0.23
-4.96432e+00,-0.07,0.08
-4.96424e+00,-0.055,-0.215
-4.96416e+00,-0.105,0.09
-4.96408e+00,-0.03,-0.22
-4.96400e+00,-0.035,0.115
-4.96392e+00,-0.095,-0.22
-4.96384e+00,-0.05,0.105
-4.96376e+00,-0.09,-0.185
-4.96368e+00,-0.025,0.095
-4.96360e+00,-0.02,-0.19
-4.96352e+00,-0.005,0.11
-4.96344e+00,-0.05,-0.18
-4.96336e+00,0.015,0.11
-4.96328e+00,-0.095,-0.165
-4.96320e+00,-0.02,0.11
-4.96312e+00,-0.035,-0.165
-4.96304e+00,-0.04,0.12
-4.96296e+00,0.06,-0.165
-4.96288e+00,0,0.135
-4.96280e+00,-0.025,-0.15
-4.96272e+00,0.02,0.145
-4.96264e+00,0.02,-0.155
-4.96256e+00,0.005,0.145
-4.96248e+00,-0.01,-0.16
-4.96240e+00,0.055,0.16
-4.96232e+00,0.04,-0.135
-4.96224e+00,0.04,0.155
-4.96216e+00,-0.01,-0.13
-4.96208e+00,-0.02,0.16
-4.96200e+00,0.055,-0.135
-4.96192e+00,0.01,0.185
-4.96184e+00,-0.015,-0.11
-4.96176e+00,-0.02,0.16
-4.96168e+00,0.065,-0.12
-4.96160e+00,0.03,0.175
-4.96152e+00,0.055,-0.115
-4.96144e+00,0.015,0.195
-4.96136e+00,0.035,-0.115
-4.96128e+00,-0.005,0.19
-4.96120e+00,0.035,-0.115
-4.96112e+00,0.04,0.205
-4.96104e+00,0.04,-0.08
-4.96096e+00,0.075,0.18
-4.96088e+00,0.015,-0.07
-4.96080e+00,0.03,0.185
-4.96072e+00,-0.005,-0.08
-4.96064e+00,0.03,0.205
-4.96056e+00,0.105,-0.09
-4.96048e+00,0.08,0.21
-4.96040e+00,0.145,-0.07
-4.96032e+00,0.025,0.215
-4.96024e+00,0.095,-0.065
-4.96016e+00,0.08,0.225
-4.96008e+00,0.015,-0.065
-4.96000e+00,0.08,0.22
-4.95992e+00,0.07,-0.055
-4.95984e+00,0.055,0.225
-4.95976e+00,0.105,-0.065
-4.95968e+00,0.07,0.24
-4.95960e+00,0.15,-0.04
-4.95952e+00,0.145,0.23
-4.95944e+00,0.055,-0.03
-4.95936e+00,0.08,0.235
-4.95928e+00,0.085,-0.04
-4.95920e+00,0.13,0.23
-4.95912e+00,0.1,-0.035
-4.95904e+00,0.05,0.25
-4.95896e+00,0.08,-0.025
-4.95888e+00,0.13,0.25
-4.95880e+00,0.125,-0.02
-4.95872e+00,0.125,0.25
-4.95864e+00,0.175,-0.015
-4.95856e+00,0.11,0.245
-4.95848e+00,0.09,-0.01
-4.95840e+00,0.16,0.26
-4.95832e+00,0.065,-0.015
-4.95824e+00,0.12,0.265
-4.95816e+00,0.115,-0.01
-4.95808e+00,0.19,0.26
-4.95800e+00,0.15,0.005
-4.95792e+00,0.095,0.275
-4.95784e+00,0.185,-0.005
-4.95776e+00,0.175,0.28
-4.95768e+00,0.135,-0.01
-4.95760e+00,0.15,0.29
-4.95752e+00,0.125,-0.01
-4.95744e+00,0.125,0.3
-4.95736e+00,0.21,0.005
-4.95728e+00,0.215,0.29
-4.95720e+00,0.16,0.01
-4.95712e+00,0.21,0.29
-4.95704e+00,0.125,0.005
-4.95696e+00,0.16,0.3
-4.95688e+00,0.185,0.01
-4.95680e+00,0.09,0.295
-4.95672e+00,0.125,0.005
-4.95664e+00,0.15,0.315
-4.95656e+00,0.215,0.02
-4.95648e+00,0.155,0.305
-4.95640e+00,0.18,0.02
-4.95632e+00,0.195,0.31
-4.95624e+00,0.18,-0.01
-4.95616e+00,0.2,0.35
-4.95608e+00,0.18,0.035
-4.95600e+00,0.19,0.315
-4.95592e+00,0.27,0.025
-4.95584e+00,0.2,0.325
-4.95576e+00,0.225,0.02
-4.95568e+00,0.2,0.34
-4.95560e+00,0.205,0.025
-4.95552e+00,0.25,0.345
-4.95544e+00,0.18,0.035
-4.95536e+00,0.17,0.34
-4.95528e+00,0.2,0.035
-4.95520e+00,0.195,0.345
-4.95512e+00,0.2,0.03
-4.95504e+00,0.17,0.35
-4.95496e+00,0.165,0.045
-4.95488e+00,0.15,0.345
-4.95480e+00,0.255,0.055
-4.95472e+00,0.225,0.335
-4.95464e+00,0.245,0.045
-4.95456e+00,0.21,0.35
-4.95448e+00,0.185,0.05
-4.95440e+00,0.22,0.345
-4.95432e+00,0.19,0.055
-4.95424e+00,0.265,0.35
-4.95416e+00,0.19,0.06
-4.95408e+00,0.19,0.35
-4.95400e+00,0.22,0.055
-4.95392e+00,0.2,0.36
-4.95384e+00,0.305,0.065
-4.95376e+00,0.245,0.36
-4.95368e+00,0.22,0.07
-4.95360e+00,0.21,0.36
-4.95352e+00,0.255,0.07
-4.95344e+00,0.185,0.36
-4.95336e+00,0.255,0.07
-4.95328e+00,0.215,0.375
-4.95320e+00,0.285,0.08
-4.95312e+00,0.2,0.355
-4.95304e+00,0.235,0.075
-4.95296e+00,0.185,0.37
-4.95288e+00,0.235,0.075
-4.95280e+00,0.215,0.375
-4.95272e+00,0.285,0.08
-4.95264e+00,0.295,0.37
-4.95256e+00,0.235,0.085
-4.95248e+00,0.21,0.37
-4.95240e+00,0.26,0.075
-4.95232e+00,0.28,0.385
-4.95224e+00,0.185,0.075
-4.95216e+00,0.225,0.385
-4.95208e+00,0.245,0.1
-4.95200e+00,0.265,0.37
-4.95192e+00,0.25,0.1
-4.95184e+00,0.26,0.365
-4.95176e+00,0.245,0.09
-4.95168e+00,0.21,0.385
-4.95160e+00,0.19,0.1
-4.95152e+00,0.25,0.375
-4.95144e+00,0.185,0.11
-4.95136e+00,0.265,0.375
-4.95128e+00,0.25,0.11
-4.95120e+00,0.305,0.38
-4.95112e+00,0.215,0.115
-4.95104e+00,0.2,0.375
-4.95096e+00,0.24,0.105
-4.95088e+00,0.255,0.385
-4.95080e+00,0.235,0.11
-4.95072e+00,0.32,0.385
-4.95064e+00,0.26,0.105
-4.95056e+00,0.255,0.39
-4.95048e+00,0.25,0.12
-4.95040e+00,0.34,0.385
-4.95032e+00,0.255,0.115
-4.95024e+00,0.17,0.385
-4.95016e+00,0.255,0.12
-4.95008e+00,0.22,0.39
-4.95000e+00,0.245,0.115
-4.94992e+00,0.225,0.395
-4.94984e+00,0.27,0.11
-4.94976e+00,0.25,0.4
-4.94968e+00,0.19,0.115
-4.94960e+00,0.23,0.4
-4.94952e+00,0.265,0.12
-4.94944e+00,0.26,0.4
-4.94936e+00,0.25,0.125
-4.94928e+00,0.32,0.4
-4.94920e+00,0.205,0.105
-4.94912e+00,0.29,0.42
-4.94904e+00,0.235,0.12
-4.94896e+00,0.295,0.405
-4.94888e+00,0.255,0.12
-4.94880e+00,0.27,0.42
-4.94872e+00,0.25,0.115
-4.94864e+00,0.38,0.42
-4.94856e+00,0.27,0.12
-4.94848e+00,0.23,0.42
-4.94840e+00,0.275,0.12
-4.94832e+00,0.33,0.425
-4.94824e+00,0.255,0.135
-4.94816e+00,0.295,0.41
-4.94808e+00,0.32,0.14
-4.94800e+00,0.305,0.415
-4.94792e+00,0.305,0.125
-4.94784e+00,0.245,0.425
-4.94776e+00,0.31,0.13
-4.94768e+00,0.31,0.42
-4.94760e+00,0.27,0.12
-4.94752e+00,0.31,0.43
-4.94744e+00,0.295,0.145
-4.94736e+00,0.335,0.41
-4.94728e+00,0.31,0.13
-4.94720e+00,0.285,0.435
-4.94712e+00,0.3,0.145
-4.94704e+00,0.29,0.42
-4.94696e+00,0.36,0.135
-4.94688e+00,0.29,0.43
-4.94680e+00,0.27,0.135
-4.94672e+00,0.335,0.435
-4.94664e+00,0.305,0.14
-4.94656e+00,0.255,0.43
-4.94648e+00,0.315,0.135
-4.94640e+00,0.34,0.435
-4.94632e+00,0.34,0.15
-4.94624e+00,0.33,0.425
-4.94616e+00,0.27,0.14
-4.94608e+00,0.275,0.43
-4.94600e+00,0.205,0.15
-4.94592e+00,0.285,0.43
-4.94584e+00,0.335,0.145
-4.94576e+00,0.245,0.425
-4.94568e+00,0.275,0.145
-4.94560e+00,0.29,0.425
-4.94552e+00,0.305,0.145
-4.94544e+00,0.265,0.42
-4.94536e+00,0.27,0.14
-4.94528e+00,0.28,0.425
-4.94520e+00,0.315,0.14
-4.94512e+00,0.275,0.42
-4.94504e+00,0.335,0.14
-4.94496e+00,0.23,0.43
-4.94488e+00,0.235,0.14
-4.94480e+00,0.29,0.415
-4.94472e+00,0.37,0.135
-4.94464e+00,0.265,0.415
-4.94456e+00,0.265,0.13
-4.94448e+00,0.29,0.415
-4.94440e+00,0.285,0.135
-4.94432e+00,0.34,0.405
-4.94424e+00,0.265,0.125
-4.94416e+00,0.245,0.415
-4.94408e+00,0.22,0.11
-4.94400e+00,0.245,0.42
-4.94392e+00,0.285,0.13
-4.94384e+00,0.215,0.4
-4.94376e+00,0.26,0.12
-4.94368e+00,0.29,0.395
-4.94360e+00,0.265,0.12
-4.94352e+00,0.235,0.395
-4.94344e+00,0.26,0.095
-4.94336e+00,0.185,0.395
-4.94328e+00,0.24,0.105
-4.94320e+00,0.235,0.385
-4.94312e+00,0.26,0.08
-4.94304e+00,0.195,0.39
-4.94296e+00,0.24,0.09
-4.94288e+00,0.185,0.375
-4.94280e+00,0.23,0.085
-4.94272e+00,0.23,0.37
-4.94264e+00,0.18,0.075
-4.94256e+00,0.23,0.36
-4.94248e+00,0.2,0.085
-4.94240e+00,0.255,0.345
-4.94232e+00,0.095,0.08
-4.94224e+00,0.23,0.34
-4.94216e+00,0.155,0.055
-4.94208e+00,0.225,0.345
-4.94200e+00,0.16,0.05
-4.94192e+00,0.145,0.335
-4.94184e+00,0.175,0.045
-4.94176e+00,0.18,0.35
-4.94168e+00,0.17,0.045
-4.94160e+00,0.135,0.31
-4.94152e+00,0.125,0.045
-4.94144e+00,0.155,0.31
-4.94136e+00,0.145,0.035
-4.94128e+00,0.165,0.31
-4.94120e+00,0.23,0.02
-4.94112e+00,0.145,0.3
-4.94104e+00,0.215,0.015
-4.94096e+00,0.155,0.285
-4.94088e+00,0.12,0
-4.94080e+00,0.12,0.295
-4.94072e+00,0.125,-0.005
-4.94064e+00,0.14,0.28
-4.94056e+00,0.145,-0.015
-4.94048e+00,0.075,0.27
-4.94040e+00,0.055,-0.015
-4.94032e+00,0.16,0.26
-4.94024e+00,0.08,-0.025
-4.94016e+00,0.115,0.255
-4.94008e+00,0.1,-0.05
-4.94000e+00,0.1,0.26
-4.93992e+00,0.04,-0.04
-4.93984e+00,0.135,0.25
-4.93976e+00,0.055,-0.05
-4.93968e+00,0.005,0.235
-4.93960e+00,0.115,-0.065
-4.93952e+00,0.02,0.24
-4.93944e+00,0.09,-0.075
-4.93936e+00,0.095,0.23
-4.93928e+00,0.1,-0.075
-4.93920e+00,0.01,0.22
-4.93912e+00,0.105,-0.085
-4.93904e+00,0,0.215
-4.93896e+00,0.06,-0.075
-4.93888e+00,0.015,0.195
-4.93880e+00,-0.035,-0.085
-4.93872e+00,0.075,0.185
-4.93864e+00,0.085,-0.085
-4.93856e+00,0.005,0.19
-4.93848e+00,0.135,-0.105
-4.93840e+00,0.04,0.185
-4.93832e+00,0.03,-0.125
-4.93824e+00,0.04,0.185
-4.93816e+00,0.055,-0.115
-4.93808e+00,0.015,0.165
-4.93800e+00,0,-0.12
-4.93792e+00,0.015,0.16
-4.93784e+00,0.01,-0.13
-4.93776e+00,-0.01,0.165
-4.93768e+00,0.01,-0.135
-4.93760e+00,0,0.15
-4.93752e+00,-0.005,-0.135
-4.93744e+00,-0.095,0.14
-4.93736e+00,-0.035,-0.14
-4.93728e+00,0.025,0.14
-4.93720e+00,-0.07,-0.155
-4.93712e+00,-0.025,0.13
-4.93704e+00,-0.04,-0.155
-4.93696e+00,-0.045,0.13
-4.93688e+00,0.015,-0.16
-4.93680e+00,-0.025,0.12
-4.93672e+00,-0.045,-0.165
-4.93664e+00,-0.025,0.12
-4.93656e+00,-0.065,-0.165
-4.93648e+00,-0.1,0.1
-4.93640e+00,-0.045,-0.175
